<svg xmlns="http://www.w3.org/2000/svg" width="470" height="80" viewBox="0 0 470 80">
  <defs>
    <style>
      .cls-1, .cls-2, .cls-3 {
        fill-rule: evenodd;
      }

      .cls-2 {
        fill: #c89600;
      }

      .cls-3 {
        fill: #1d2b6f;
      }
    </style>
  </defs>
  <path id="ACCOUNTINg_Wealth_MANAGMENT_Consulting" data-name="ACCOUNTINg | Wealth MANAGMENT | Consulting" class="cls-1" d="M33.741,71.966h2.492L31.976,60.591H29.8L25.569,71.966h2.492l0.781-2.344h4.109Zm-2.852-8.5,1.43,4.258H29.476Zm13.792,4.711a2.241,2.241,0,0,1-.613,1.535,2.314,2.314,0,0,1-1.621.5,1.954,1.954,0,0,1-1.762-.852,5.037,5.037,0,0,1-.559-2.7V65.8a4.706,4.706,0,0,1,.6-2.605,1.991,1.991,0,0,1,1.754-.84,2.271,2.271,0,0,1,1.605.5,2.376,2.376,0,0,1,.613,1.6h2.344a4.326,4.326,0,0,0-1.391-2.961,5.164,5.164,0,0,0-5.668-.387,4.331,4.331,0,0,0-1.652,1.918,6.817,6.817,0,0,0-.578,2.891v0.7a6.038,6.038,0,0,0,1.254,4.043,4.28,4.28,0,0,0,3.441,1.473,4.76,4.76,0,0,0,3.223-1.055,4.026,4.026,0,0,0,1.355-2.891H44.682Zm11.269,0a2.241,2.241,0,0,1-.613,1.535,2.314,2.314,0,0,1-1.621.5,1.954,1.954,0,0,1-1.762-.852,5.036,5.036,0,0,1-.559-2.7V65.8a4.707,4.707,0,0,1,.6-2.605,1.991,1.991,0,0,1,1.754-.84,2.271,2.271,0,0,1,1.605.5,2.376,2.376,0,0,1,.613,1.6H58.31a4.326,4.326,0,0,0-1.391-2.961,5.163,5.163,0,0,0-5.668-.387A4.332,4.332,0,0,0,49.6,63.021a6.817,6.817,0,0,0-.578,2.891v0.7a6.038,6.038,0,0,0,1.254,4.043,4.28,4.28,0,0,0,3.441,1.473,4.76,4.76,0,0,0,3.223-1.055,4.025,4.025,0,0,0,1.356-2.891H55.951Zm14.026-2.148a6.813,6.813,0,0,0-.605-2.949,4.509,4.509,0,0,0-1.711-1.961,5.014,5.014,0,0,0-5.055,0A4.508,4.508,0,0,0,60.9,63.08a6.83,6.83,0,0,0-.605,2.957V66.6a6.67,6.67,0,0,0,.617,2.9,4.515,4.515,0,0,0,1.719,1.941,5.021,5.021,0,0,0,5.059-.008,4.471,4.471,0,0,0,1.7-1.953,6.868,6.868,0,0,0,.594-2.945V66.029Zm-2.375.547a4.818,4.818,0,0,1-.641,2.7,2.243,2.243,0,0,1-3.656-.035,4.845,4.845,0,0,1-.641-2.7V65.982a4.732,4.732,0,0,1,.648-2.691,2.263,2.263,0,0,1,3.648.012,4.788,4.788,0,0,1,.641,2.719v0.555Zm11.136-5.984v7.57A1.823,1.823,0,0,1,76.73,70.24a2.054,2.054,0,0,1-1.48-.512,2.167,2.167,0,0,1-.535-1.629V60.591H72.371v7.578a3.77,3.77,0,0,0,1.2,2.9,4.553,4.553,0,0,0,3.164,1.055,4.5,4.5,0,0,0,3.192-1.086,3.836,3.836,0,0,0,1.168-2.953V60.591H78.738Zm14.323,0H90.726v7.5l-4.57-7.5H83.812V71.966h2.344V64.482l4.563,7.484h2.344V60.591Zm11.409,0H95.205v1.9h3.438v9.477h2.344V62.49h3.484v-1.9Zm4.628,0h-2.344V71.966H109.1V60.591Zm12.222,0h-2.336v7.5l-4.57-7.5h-2.344V71.966h2.344V64.482l4.562,7.484h2.344V60.591Zm11.847,5.4h-4.477v1.727h2.133v1.961a2.6,2.6,0,0,1-1.883.563,2.327,2.327,0,0,1-1.992-.914,4.5,4.5,0,0,1-.68-2.7V65.9a4.728,4.728,0,0,1,.633-2.672,2.08,2.08,0,0,1,1.821-.9,2.207,2.207,0,0,1,1.472.453,2.272,2.272,0,0,1,.692,1.43h2.281a4.123,4.123,0,0,0-1.352-2.809,5.453,5.453,0,0,0-5.7-.3A4.252,4.252,0,0,0,124.461,63a6.992,6.992,0,0,0-.574,2.949v0.773a6.574,6.574,0,0,0,.621,2.883,4.294,4.294,0,0,0,1.718,1.871,5.08,5.08,0,0,0,2.59.645,7.5,7.5,0,0,0,2.563-.418,4.067,4.067,0,0,0,1.789-1.176V65.99Zm9.186-5.4h-1.367V74.076h1.367V60.591Zm14.92,0H155.29l-1.875,8.078-1.539-8.078H149.54l2.523,11.375h2.36l1.851-7.609,1.852,7.609h2.359l2.523-11.375h-2.335l-1.532,8.094ZM171.918,65.2h-4.5V62.49h5.265v-1.9h-7.609V71.966H172.7V70.084h-5.281V67.037h4.5V65.2Zm10.167,6.766h2.492l-4.258-11.375h-2.171l-4.235,11.375h2.492l0.782-2.344H181.3Zm-2.852-8.5,1.43,4.258h-2.844Zm9.55-2.875H186.44V71.966h7.32V70.084h-4.977V60.591Zm14.082,0H193.6v1.9h3.438v9.477h2.343V62.49h3.485v-1.9Zm11.393,0h-2.343V65.2h-4.571V60.591H205V71.966h2.343V67.091h4.571v4.875h2.343V60.591Zm7.632,0V71.966h2.343V68.857L224,63.5l3.063,8.469h1.609l3.07-8.477-0.234,5.367v3.109h2.351V60.591H230.78l-2.906,8.25-2.922-8.25H221.89Zm22.026,11.375h2.492l-4.257-11.375h-2.172l-4.235,11.375h2.493l0.781-2.344h4.109Zm-2.851-8.5,1.429,4.258h-2.843Zm16.456-2.875h-2.336v7.5l-4.57-7.5h-2.344V71.966h2.344V64.482l4.562,7.484h2.344V60.591Zm10.058,11.375h2.492l-4.258-11.375h-2.172l-4.234,11.375H261.9l0.781-2.344h4.11Zm-2.852-8.5,1.43,4.258h-2.844Zm16.206,2.523h-4.476v1.727h2.133v1.961a2.6,2.6,0,0,1-1.883.563,2.327,2.327,0,0,1-1.992-.914,4.5,4.5,0,0,1-.68-2.7V65.9a4.72,4.72,0,0,1,.633-2.672,2.077,2.077,0,0,1,1.82-.9,2.21,2.21,0,0,1,1.473.453,2.271,2.271,0,0,1,.691,1.43h2.281a4.122,4.122,0,0,0-1.351-2.809,5.453,5.453,0,0,0-5.7-.3A4.248,4.248,0,0,0,272.226,63a7.007,7.007,0,0,0-.574,2.949v0.773a6.6,6.6,0,0,0,.621,2.883,4.3,4.3,0,0,0,1.719,1.871,5.075,5.075,0,0,0,2.59.645,7.5,7.5,0,0,0,2.562-.418,4.062,4.062,0,0,0,1.789-1.176V65.99Zm2.7-5.4V71.966h2.344V68.857L285.741,63.5l3.063,8.469h1.609l3.07-8.477-0.234,5.367v3.109H295.6V60.591h-3.079l-2.906,8.25-2.922-8.25h-3.062ZM305.291,65.2h-4.5V62.49h5.266v-1.9h-7.61V71.966h7.625V70.084h-5.281V67.037h4.5V65.2ZM317.5,60.591h-2.335v7.5l-4.571-7.5h-2.344V71.966h2.344V64.482l4.563,7.484H317.5V60.591Zm11.41,0h-9.266v1.9h3.438v9.477h2.343V62.49h3.485v-1.9Zm8.155,0h-1.368V74.076h1.368V60.591Zm14.514,7.586a2.244,2.244,0,0,1-.614,1.535,2.312,2.312,0,0,1-1.621.5,1.953,1.953,0,0,1-1.761-.852,5.031,5.031,0,0,1-.559-2.7V65.8a4.7,4.7,0,0,1,.6-2.605,1.99,1.99,0,0,1,1.753-.84,2.273,2.273,0,0,1,1.606.5,2.372,2.372,0,0,1,.613,1.6h2.344a4.326,4.326,0,0,0-1.391-2.961,5.164,5.164,0,0,0-5.668-.387,4.33,4.33,0,0,0-1.652,1.918,6.825,6.825,0,0,0-.578,2.891v0.7A6.038,6.038,0,0,0,345.9,70.65a4.28,4.28,0,0,0,3.441,1.473,4.761,4.761,0,0,0,3.223-1.055,4.023,4.023,0,0,0,1.355-2.891h-2.343ZM365.6,66.029a6.821,6.821,0,0,0-.6-2.949,4.511,4.511,0,0,0-1.711-1.961,5.014,5.014,0,0,0-5.055,0,4.511,4.511,0,0,0-1.711,1.961,6.825,6.825,0,0,0-.6,2.957V66.6a6.67,6.67,0,0,0,.617,2.9,4.511,4.511,0,0,0,1.719,1.941,5.02,5.02,0,0,0,5.058-.008,4.465,4.465,0,0,0,1.7-1.953,6.864,6.864,0,0,0,.594-2.945V66.029Zm-2.375.547a4.824,4.824,0,0,1-.64,2.7,2.244,2.244,0,0,1-3.657-.035,4.847,4.847,0,0,1-.64-2.7V65.982a4.732,4.732,0,0,1,.648-2.691,2.264,2.264,0,0,1,3.649.012,4.788,4.788,0,0,1,.64,2.719v0.555Zm14.128-5.984h-2.336v7.5l-4.57-7.5h-2.344V71.966h2.344V64.482l4.563,7.484h2.343V60.591Zm8.277,9.34a2.191,2.191,0,0,1-1.305.34q-2.25,0-2.25-1.883h-2.351a3.368,3.368,0,0,0,.566,1.938,3.785,3.785,0,0,0,1.645,1.316,5.8,5.8,0,0,0,2.39.48,4.891,4.891,0,0,0,3.008-.84,2.737,2.737,0,0,0,1.117-2.316,2.97,2.97,0,0,0-.914-2.219,7.107,7.107,0,0,0-2.914-1.492,6.3,6.3,0,0,1-1.644-.7,1.1,1.1,0,0,1-.559-0.93,1.146,1.146,0,0,1,.477-0.957,2.157,2.157,0,0,1,1.335-.363,2.023,2.023,0,0,1,1.383.434,1.534,1.534,0,0,1,.492,1.215h2.344a3.265,3.265,0,0,0-.527-1.828,3.461,3.461,0,0,0-1.481-1.246,5.111,5.111,0,0,0-2.171-.441,5.615,5.615,0,0,0-2.184.406A3.384,3.384,0,0,0,380.6,61.97a2.743,2.743,0,0,0-.52,1.645,3.153,3.153,0,0,0,1.938,2.82,11.961,11.961,0,0,0,1.929.777,6.152,6.152,0,0,1,1.688.75,1.2,1.2,0,0,1,.469,1.019A1.107,1.107,0,0,1,385.632,69.931Zm11.464-9.34v7.57a1.823,1.823,0,0,1-2.008,2.078,2.052,2.052,0,0,1-1.48-.512,2.166,2.166,0,0,1-.535-1.629V60.591h-2.344v7.578a3.769,3.769,0,0,0,1.195,2.9,4.553,4.553,0,0,0,3.164,1.055,4.5,4.5,0,0,0,3.192-1.086,3.838,3.838,0,0,0,1.168-2.953V60.591H397.1Zm7.417,0h-2.344V71.966h7.321V70.084h-4.977V60.591Zm14.081,0h-9.265v1.9h3.437v9.477h2.344V62.49h3.484v-1.9Zm4.629,0h-2.344V71.966h2.344V60.591Zm12.221,0h-2.336v7.5l-4.57-7.5h-2.344V71.966h2.344V64.482l4.563,7.484h2.343V60.591Zm11.847,5.4h-4.476v1.727h2.133v1.961a2.6,2.6,0,0,1-1.883.563,2.327,2.327,0,0,1-1.992-.914,4.491,4.491,0,0,1-.68-2.7V65.9a4.72,4.72,0,0,1,.633-2.672,2.077,2.077,0,0,1,1.82-.9,2.21,2.21,0,0,1,1.473.453,2.271,2.271,0,0,1,.691,1.43h2.281A4.122,4.122,0,0,0,445.94,61.4a5.454,5.454,0,0,0-5.7-.3A4.252,4.252,0,0,0,438.584,63a6.992,6.992,0,0,0-.574,2.949v0.773a6.574,6.574,0,0,0,.621,2.883,4.3,4.3,0,0,0,1.719,1.871,5.075,5.075,0,0,0,2.59.645A7.5,7.5,0,0,0,445.5,71.7a4.067,4.067,0,0,0,1.789-1.176V65.99Z"/>
  <path id="_" data-name="&amp;" class="cls-2" d="M8,47.625H194.531v1.281H8V47.625Zm237.406,0H465v1.281H245.406V47.625ZM238.415,8.006a12.671,12.671,0,0,0-3.315.437,6.24,6.24,0,0,0-2.687,1.433,3.341,3.341,0,0,0-1.068,2.555,2.872,2.872,0,0,0,1,2.353,3.648,3.648,0,0,0,2.389.826,3.814,3.814,0,0,0,2.545-.9,2.793,2.793,0,0,0,1.068-2.212,3.388,3.388,0,0,0-.471-1.7,3.145,3.145,0,0,0-1.32-1.262q0.283-.56,1.917-0.561a8.135,8.135,0,0,1,3.692.857,7.257,7.257,0,0,1,2.75,2.337,5.554,5.554,0,0,1,1.037,3.256,4.911,4.911,0,0,1-1.242,3.225,12.623,12.623,0,0,1-4.289,2.914,40.067,40.067,0,0,1-4.682,1.776q-2.577.811-6.174,1.823t-4.855,1.418a16.811,16.811,0,0,0-6.678,3.8,7.618,7.618,0,0,0-2.215,5.516,6.923,6.923,0,0,0,4.195,6.668,9.291,9.291,0,0,0,3.787.81,10.465,10.465,0,0,0,3.566-.639,7.333,7.333,0,0,0,2.938-1.885,4.193,4.193,0,0,0,1.163-2.96,3.41,3.41,0,0,0-.943-2.509,3.342,3.342,0,0,0-2.482-.95,3.585,3.585,0,0,0-2.514.919,3.116,3.116,0,0,0-1.006,2.415,2.812,2.812,0,0,0,.9,2.243,4.314,4.314,0,0,0,2.121,1,1.833,1.833,0,0,1-1.461,1.028,8.775,8.775,0,0,1-2.4.374,6.623,6.623,0,0,1-2.671-.608,5.966,5.966,0,0,1-2.31-1.776,4.26,4.26,0,0,1-.927-2.727,4.125,4.125,0,0,1,1.477-3.209,13.572,13.572,0,0,1,4.179-2.337q1.7-.654,7.416-2.431a9.3,9.3,0,0,1,5.106,4.129,11.084,11.084,0,0,1,1.367,5.126,9.193,9.193,0,0,1-2.294,6.185,14.53,14.53,0,0,1-6.158,4.082,24.368,24.368,0,0,1-8.453,1.418,22.683,22.683,0,0,1-8.8-1.636,14.172,14.172,0,0,1-6.19-4.752,12.231,12.231,0,0,1-2.262-7.385q0-8.008,8.358-10.47,0.189,0.063.911,0.39a16.939,16.939,0,0,0,1.792.67,6.581,6.581,0,0,0,2.011.343,2.309,2.309,0,0,0,1.3-.327,1.02,1.02,0,0,0,.487-0.888,1.182,1.182,0,0,0-.692-1.091,3.986,3.986,0,0,0-1.885-.374,24.412,24.412,0,0,0-3.991.374,9.48,9.48,0,0,1-3.268-7.261,7.479,7.479,0,0,1,2.043-5.609,7.4,7.4,0,0,1,5.4-1.994,7.936,7.936,0,0,1,3.268.608,2.759,2.759,0,0,1,1.634,1.449,3.721,3.721,0,0,0-2.467,1.122,3.3,3.3,0,0,0-.959,2.368,2.958,2.958,0,0,0,.99,2.337,3.466,3.466,0,0,0,2.373.873,3.775,3.775,0,0,0,2.514-.935,3.073,3.073,0,0,0,1.1-2.462,4.958,4.958,0,0,0-.6-2.259,6.678,6.678,0,0,0-1.791-2.135,10.379,10.379,0,0,0-6.693-1.932A14.3,14.3,0,0,0,209.1,10.39a8.709,8.709,0,0,0-3.708,2.929,6.809,6.809,0,0,0-1.257,3.942,7.649,7.649,0,0,0,1.665,4.674,11.471,11.471,0,0,0,4.808,3.552,21.08,21.08,0,0,0-4.981,2.1A15.16,15.16,0,0,0,200.833,32a11.766,11.766,0,0,0-2.1,7.1,13.169,13.169,0,0,0,2.844,8.382,18.2,18.2,0,0,0,7.6,5.562A27.176,27.176,0,0,0,219.561,55a23.781,23.781,0,0,0,10.433-2.151,16.829,16.829,0,0,0,6.834-5.655,13.08,13.08,0,0,0,2.373-7.463,12.265,12.265,0,0,0-1.713-6.5,10.815,10.815,0,0,0-5.326-4.316,93.837,93.837,0,0,0,9.552-3.334,12.015,12.015,0,0,0,4.431-3.63,8.709,8.709,0,0,0,1.665-5.313,8.451,8.451,0,0,0-1.225-4.6,8.072,8.072,0,0,0-3.362-2.991,10.817,10.817,0,0,0-4.808-1.044h0Z"/>
  <path id="ASSOCIATES" class="cls-3" d="M267.811,39.966h6.259l-8.932-24.172H259.66l-8.866,24.172h6.226l1.4-4.516H266.4Zm-5.412-17.4,2.606,8.384h-5.2Zm25.06,12.725a3.751,3.751,0,0,1-2.283.623,4.748,4.748,0,0,1-3.262-.921,3.705,3.705,0,0,1-1-2.864h-5.844a7.522,7.522,0,0,0,1.2,4.225,8.014,8.014,0,0,0,3.586,2.889,13,13,0,0,0,5.32,1.054,10.634,10.634,0,0,0,6.558-1.81,5.9,5.9,0,0,0,2.391-4.98q0-3.968-3.918-6.226a21.506,21.506,0,0,0-4.118-1.735,12.573,12.573,0,0,1-3.5-1.56,2.029,2.029,0,0,1-.091-3.437,3.977,3.977,0,0,1,2.465-.689,3.526,3.526,0,0,1,2.449.814,2.923,2.923,0,0,1,.905,2.291h5.811a6.913,6.913,0,0,0-1.146-3.926,7.4,7.4,0,0,0-3.212-2.648,11.278,11.278,0,0,0-4.674-.93,12.889,12.889,0,0,0-4.814.855,7.569,7.569,0,0,0-3.312,2.391,5.689,5.689,0,0,0-1.171,3.544q0,4.034,4.7,6.342a30.475,30.475,0,0,0,3.718,1.478,11.263,11.263,0,0,1,3.18,1.477,2.394,2.394,0,0,1,.9,1.992A2.054,2.054,0,0,1,287.459,35.293Zm21.283,0a3.749,3.749,0,0,1-2.282.623,4.749,4.749,0,0,1-3.263-.921,3.709,3.709,0,0,1-1-2.864h-5.844a7.522,7.522,0,0,0,1.2,4.225,8.014,8.014,0,0,0,3.586,2.889A13.007,13.007,0,0,0,306.46,40.3a10.633,10.633,0,0,0,6.557-1.81,5.9,5.9,0,0,0,2.391-4.98q0-3.968-3.918-6.226a21.494,21.494,0,0,0-4.117-1.735,12.545,12.545,0,0,1-3.5-1.56,2.029,2.029,0,0,1-.092-3.437,3.978,3.978,0,0,1,2.466-.689,3.525,3.525,0,0,1,2.448.814,2.92,2.92,0,0,1,.9,2.291h5.811a6.913,6.913,0,0,0-1.146-3.926,7.394,7.394,0,0,0-3.212-2.648,11.276,11.276,0,0,0-4.673-.93,12.89,12.89,0,0,0-4.815.855,7.569,7.569,0,0,0-3.312,2.391,5.689,5.689,0,0,0-1.17,3.544q0,4.034,4.7,6.342a30.432,30.432,0,0,0,3.719,1.478,11.268,11.268,0,0,1,3.179,1.477,2.4,2.4,0,0,1,.905,1.992A2.055,2.055,0,0,1,308.742,35.293Zm30.124-8.027a13.905,13.905,0,0,0-1.353-6.184,9.845,9.845,0,0,0-3.744-4.159,11.057,11.057,0,0,0-11.015.017,9.661,9.661,0,0,0-3.735,4.192,14.315,14.315,0,0,0-1.3,6.267V28.76a13.839,13.839,0,0,0,1.4,6.06,9.682,9.682,0,0,0,3.727,4.059,10.526,10.526,0,0,0,5.479,1.419,10.377,10.377,0,0,0,5.5-1.469,9.686,9.686,0,0,0,3.727-4.192,14.259,14.259,0,0,0,1.312-6.259V27.266Zm-5.927,1.212a10.166,10.166,0,0,1-1.212,5.4,3.808,3.808,0,0,1-3.4,1.876,3.854,3.854,0,0,1-3.5-1.909,10.451,10.451,0,0,1-1.179-5.462l0.017-1.776q0.249-6.574,4.632-6.574a3.859,3.859,0,0,1,3.444,1.868,10.159,10.159,0,0,1,1.2,5.47v1.112Zm22.694,3.3a4.013,4.013,0,0,1-1.129,3,4.473,4.473,0,0,1-3.071.946,3.553,3.553,0,0,1-3.345-1.66q-0.972-1.66-.971-5.528v-1.71a10.457,10.457,0,0,1,1.062-5.2,3.481,3.481,0,0,1,3.188-1.627,4.575,4.575,0,0,1,3.187.963,4.33,4.33,0,0,1,1.113,3.171h5.81a9.148,9.148,0,0,0-3.038-6.383,10.418,10.418,0,0,0-7.072-2.316,9.934,9.934,0,0,0-5.379,1.453,9.365,9.365,0,0,0-3.561,4.117,14.625,14.625,0,0,0-1.237,6.217v1.2q0,5.661,2.739,8.766a9.492,9.492,0,0,0,7.5,3.1,11.89,11.89,0,0,0,5.138-1.062,8.212,8.212,0,0,0,3.495-3,8.822,8.822,0,0,0,1.361-4.457h-5.794Zm14.759-15.987h-5.81V39.966h5.81V15.794Zm19.192,24.172h6.258l-8.931-24.172h-5.479l-8.865,24.172h6.226l1.394-4.516h7.985Zm-5.413-17.4,2.607,8.384h-5.2Zm30.414-6.773h-20.2v4.5H401.5V39.966h5.828V20.293h7.254v-4.5Zm17.449,9.6H422.87v-5.1h10.857v-4.5H417.043V39.966h16.651V35.484H422.87V29.707h9.164V25.39Zm15.663,9.9a3.749,3.749,0,0,1-2.282.623,4.749,4.749,0,0,1-3.263-.921,3.709,3.709,0,0,1-1-2.864H435.3a7.522,7.522,0,0,0,1.2,4.225,8.014,8.014,0,0,0,3.586,2.889,13.007,13.007,0,0,0,5.321,1.054,10.633,10.633,0,0,0,6.557-1.81,5.9,5.9,0,0,0,2.391-4.98q0-3.968-3.918-6.226a21.494,21.494,0,0,0-4.117-1.735,12.545,12.545,0,0,1-3.5-1.56,2.029,2.029,0,0,1-.092-3.437,3.98,3.98,0,0,1,2.466-.689,3.53,3.53,0,0,1,2.449.814,2.922,2.922,0,0,1,.9,2.291h5.811a6.913,6.913,0,0,0-1.146-3.926,7.394,7.394,0,0,0-3.212-2.648,11.276,11.276,0,0,0-4.673-.93,12.894,12.894,0,0,0-4.815.855,7.569,7.569,0,0,0-3.312,2.391,5.689,5.689,0,0,0-1.17,3.544q0,4.034,4.7,6.342a30.432,30.432,0,0,0,3.719,1.478,11.254,11.254,0,0,1,3.179,1.477,2.4,2.4,0,0,1,.905,1.992A2.055,2.055,0,0,1,447.7,35.293Z"/>
  <path id="FItchman" class="cls-3" d="M34.574,25.855h-9.4V20.293H35.52v-4.5H19.35V39.966h5.827V30.337h9.4V25.855Zm9.579-10.061H38.342V39.966h5.811V15.794Zm23.026,0h-20.2v4.5H54.1V39.966h5.827V20.293h7.255v-4.5ZM83.4,31.782a4.018,4.018,0,0,1-1.129,3,4.475,4.475,0,0,1-3.071.946,3.554,3.554,0,0,1-3.345-1.66q-0.971-1.66-.971-5.528v-1.71a10.455,10.455,0,0,1,1.063-5.2,3.48,3.48,0,0,1,3.188-1.627,4.575,4.575,0,0,1,3.188.963,4.331,4.331,0,0,1,1.112,3.171h5.811A9.151,9.151,0,0,0,86.2,17.762a10.419,10.419,0,0,0-7.072-2.316A9.936,9.936,0,0,0,73.754,16.9a9.37,9.37,0,0,0-3.561,4.117,14.631,14.631,0,0,0-1.237,6.217v1.2q0,5.661,2.739,8.766a9.491,9.491,0,0,0,7.5,3.1,11.894,11.894,0,0,0,5.138-1.062,8.215,8.215,0,0,0,3.495-3,8.827,8.827,0,0,0,1.361-4.457H83.4Zm28.754-15.987h-5.794v9.6H97.776v-9.6H91.949V39.966h5.827V29.873h8.583V39.966h5.794V15.794Zm3.686,0V39.966h5.827V34.322L121.1,22.751l5.861,17.216h3.851l5.844-17.2-0.565,11.555v5.644h5.844V15.794h-7.67l-5.379,16.817-5.395-16.817h-7.653Zm44.94,24.172h6.259l-8.932-24.172h-5.478l-8.866,24.172h6.226l1.394-4.516h7.986Zm-5.412-17.4,2.606,8.384h-5.2Zm33.618-6.773h-5.811V30.835l-8.549-15.041H168.8V39.966h5.828V24.925l8.566,15.041h5.794V15.794Z"/>
</svg>
